{
  Procedure : { Organization : "Base2art", Product : "NuGet-Package-Install", Version : "1.0.0.0" },
  ProcedureParameters : { Organization : "Base2art", Product : "NuGet-Package-Install-Parameters", Version : "1.0.0.0" },
  Parameters : { 
    PackageName : "ReportGenerator",
    PackageVersion : "2.1.4.0"
  }
}